module gitlab.com/skyhuborg/tracker

go 1.13

require (
	cloud.google.com/go v0.75.0 // indirect
	cloud.google.com/go/storage v1.12.0
	github.com/Microsoft/go-winio v0.4.16 // indirect
	github.com/Pallinder/go-randomdata v1.2.0
	github.com/ahmetalpbalkan/dlog v0.0.0-20170105205344-4fb5f8204f26
	github.com/containerd/containerd v1.4.3 // indirect
	github.com/denisenkom/go-mssqldb v0.9.0 // indirect
	github.com/desertbit/timer v0.0.0-20180107155436-c41aec40b27f // indirect
	github.com/docker/distribution v2.7.1+incompatible // indirect
	github.com/docker/docker v20.10.2+incompatible
	github.com/docker/go-connections v0.4.0 // indirect
	github.com/docker/go-units v0.4.0 // indirect
	github.com/gogo/protobuf v1.3.2 // indirect
	github.com/golang/protobuf v1.4.3
	github.com/google/uuid v1.1.5
	github.com/gorilla/mux v1.8.0 // indirect
	github.com/gorilla/websocket v1.4.2 // indirect
	github.com/improbable-eng/grpc-web v0.13.0
	github.com/jinzhu/gorm v1.9.16
	github.com/jinzhu/now v1.1.1 // indirect
	github.com/kr/text v0.2.0 // indirect
	github.com/lib/pq v1.9.0 // indirect
	github.com/mattn/go-sqlite3 v2.0.3+incompatible // indirect
	github.com/moby/term v0.0.0-20201216013528-df9cb8a40635 // indirect
	github.com/morikuni/aec v1.0.0 // indirect
	github.com/mwitkow/go-conntrack v0.0.0-20190716064945-2f068394615f // indirect
	github.com/opencontainers/go-digest v1.0.0 // indirect
	github.com/opencontainers/image-spec v1.0.1 // indirect
	github.com/pkg/errors v0.9.1
	github.com/rs/cors v1.7.0 // indirect
	github.com/sirupsen/logrus v1.7.0 // indirect
	github.com/stratoberry/go-gpsd v0.0.0-20161204231141-54ddcfa61f47
	github.com/stretchr/testify v1.7.0 // indirect
	github.com/xfrr/goffmpeg v0.0.0-20200825100927-5550d238df5c
	go.bug.st/serial v1.1.1
	gocv.io/x/gocv v0.26.0
	golang.org/x/crypto v0.0.0-20201221181555-eec23a3978ad
	golang.org/x/mod v0.4.1 // indirect
	golang.org/x/net v0.0.0-20210119194325-5f4716e94777 // indirect
	golang.org/x/oauth2 v0.0.0-20210113205817-d3ed898aa8a3 // indirect
	golang.org/x/text v0.3.5 // indirect
	golang.org/x/time v0.0.0-20201208040808-7e3f01d25324 // indirect
	golang.org/x/tools v0.1.0 // indirect
	google.golang.org/api v0.36.0
	google.golang.org/genproto v0.0.0-20210119180700-e258113e47cc // indirect
	google.golang.org/grpc v1.35.0
	google.golang.org/protobuf v1.25.0
	gopkg.in/check.v1 v1.0.0-20201130134442-10cb98267c6c // indirect
	gopkg.in/yaml.v2 v2.4.0
	gopkg.in/yaml.v3 v3.0.0-20210107192922-496545a6307b // indirect
	gotest.tools/v3 v3.0.3 // indirect
)
